   0.0000000e+00  -1.4210855e-14   0.0000000e+00   0.0000000e+00   0.0000000e+00  -9.4039548e-38
  -1.9610917e-03   1.9144037e-02  -1.8184454e-02  -3.5549237e-04  -6.1948848e-04   4.6392546e-04
  -7.3443816e-03   1.7087538e-02  -3.5029410e-02   4.2986347e-05  -1.7109609e-03  -1.3374246e-03
  -6.2821197e-03   3.3051755e-02  -2.2357880e-02  -3.4151838e-04  -3.2731703e-03  -3.8443227e-03
  -1.1739350e-02   3.7448714e-02  -1.5872500e-02  -6.8942432e-04  -2.0673757e-03  -2.3783769e-03
  -8.7467938e-04   3.2819348e-02  -2.3687156e-02  -1.5542045e-04  -1.8210489e-03  -2.2118180e-03
   6.3102462e-03   3.7625497e-02  -1.2591104e-02  -3.7334267e-04  -3.1258075e-03  -2.6327200e-03
   1.4180208e-02   1.6198046e-02  -2.3932302e-02  -3.9548707e-04  -3.2425939e-03  -3.2841304e-03
   4.6292172e-03   2.3662584e-02  -3.7036226e-02  -5.3174616e-04  -3.4237233e-03  -3.1398395e-03
   1.8624737e-02   3.3472887e-02  -2.7339564e-02   1.4029095e-04  -1.6824784e-03  -5.5683304e-04
   2.0505910e-02   2.8487452e-02  -2.6593591e-02   1.5396272e-04  -1.7753482e-03  -8.9096710e-04
   8.5575415e-03   1.6911460e-02  -3.8873364e-02   1.0632410e-03  -1.7885496e-03  -1.1349359e-03
   1.2836375e-04   3.3341028e-02  -2.1947310e-02  -3.2621470e-04  -2.3278518e-03  -8.6294315e-04
   2.0188224e-02   2.7553636e-02  -3.0115801e-02  -1.2212052e-04  -2.5280599e-03  -1.9942966e-03
   3.1765193e-02   3.6468281e-02  -2.5438976e-02  -2.1472776e-04  -2.2349950e-03  -1.3140855e-03
  -3.5874183e-02   9.9807505e-03  -7.6674747e-03   1.1037833e-03  -3.7215440e-03  -3.6200896e-03
   1.9975234e-02  -6.3263940e-03  -5.1092143e-02   1.4363722e-03  -3.8163467e-03  -4.1048864e-03
   8.3758609e-03   3.7386167e-02  -2.9434466e-02  -8.0110666e-04  -3.8492149e-03  -3.8211006e-03
  -6.1082937e-02   4.1496951e-02   2.0190311e-02   1.5943014e-03  -8.2196335e-04  -2.2752873e-03
  -8.0553184e-03   3.2424243e-02  -3.7657728e-02   1.8336256e-04  -1.0958496e-03  -8.0247022e-04
   8.3662808e-03   2.6537906e-02  -4.3696915e-02   6.6612024e-04  -2.4140069e-03  -1.9037807e-03
  -2.8010033e-02   2.2961165e-02   1.2980595e-02  -2.3046049e-04  -3.3400006e-04  -1.9815484e-03
   1.5879086e-02   2.2850865e-02  -4.5699237e-02   6.5062886e-04  -2.1845104e-03  -2.3879671e-03
   2.8381776e-03   4.8230519e-02  -2.9945013e-02   2.3073973e-04  -1.5477289e-03  -1.3295146e-03
  -1.2218246e-02   2.2172269e-02  -1.5883551e-03   3.6616706e-06  -1.3229682e-03  -1.6201950e-03
  -2.8106657e-02   4.5192649e-02  -1.0853665e-02  -6.2632856e-04  -1.6659625e-03  -1.0105114e-03
   1.5126061e-02   2.5104879e-02  -3.1365764e-02   6.5209960e-04  -1.7678869e-03  -1.7126223e-03
  -1.0152897e-02   2.8516490e-02  -1.4616778e-02  -6.8308118e-04  -1.7612703e-03  -1.1506999e-03
   5.2167200e-03   4.0147787e-02  -3.2707258e-02  -9.4464964e-04  -3.2952291e-03  -4.1474464e-03
  -1.0719069e-03   3.7688164e-02  -2.6980527e-02  -1.0992960e-03  -3.5988451e-03  -2.6065980e-03
  -9.0176216e-03   1.9933315e-02  -3.3912309e-02   1.2257213e-03  -3.5399960e-03  -3.1422856e-03
   4.3681794e-03   2.3571109e-02  -2.3787665e-02   1.7885633e-03  -3.5560923e-03  -2.6703805e-03
  -4.6921539e-02   3.7950985e-02   2.2045863e-02   1.3820454e-03  -1.1691101e-03  -2.2563947e-03
  -2.7746274e-04   3.6899519e-02  -2.7953806e-02   1.5481285e-03  -4.1092279e-03  -3.7280864e-03
   2.0813542e-02   1.9165024e-02  -2.5895026e-02   7.3152129e-04  -2.5577150e-03  -2.5927806e-03
   4.5108040e-03   3.5656236e-02  -2.5950925e-02  -9.1294814e-04  -2.8320444e-03  -2.6838518e-03
   1.0221601e-02   2.6617502e-03  -2.9522120e-02   6.4453891e-04  -2.2162200e-03  -1.8776834e-03
   2.2666055e-02   7.1083285e-03  -3.3075328e-02   1.4722285e-03  -3.4156770e-03  -2.6941774e-03
   4.3371132e-03   3.9647277e-02  -2.9920731e-02  -2.5942318e-04  -2.9163286e-03  -1.6116680e-03
   4.1470215e-03   2.0112111e-02  -3.3364471e-02  -4.4262749e-05  -3.7939019e-03  -3.8008767e-03
   5.6268022e-03   5.6687062e-03  -2.7386046e-02   1.8383178e-04  -2.4571177e-03  -2.3194647e-03
   1.1725544e-02   2.1730967e-03  -4.2721096e-02   8.0074663e-04  -2.6848929e-03  -2.2703873e-03
   2.6395358e-02   1.4255808e-02  -1.6149011e-02  -1.0723851e-04  -2.3151007e-03  -2.5636255e-03
   6.6669199e-04   1.5208805e-02  -3.0680577e-02   1.0324804e-03  -3.8715303e-03  -3.3442797e-03
  -8.0247401e-03   4.1346384e-02  -2.5514669e-02   8.6889135e-04  -2.9309218e-03  -1.9540189e-03
   1.3255726e-02   2.1648961e-02  -1.8561504e-02   4.2600347e-04  -2.9472317e-03  -3.5670511e-03
  -1.0016257e-02   3.9955222e-02  -3.1896755e-02   1.0586583e-03  -3.0818606e-03  -2.1027479e-03
   1.4445943e-02   1.7498588e-02  -9.9653770e-03   1.4598068e-03  -3.4924542e-03  -3.5593799e-03
  -6.9432196e-03   2.7168871e-02  -1.2319021e-02   1.4920408e-04  -4.6771256e-03  -5.1700282e-03
   1.6284416e-02   6.3427827e-03  -1.3645449e-02   1.5108426e-03  -2.7197169e-03  -2.7198154e-03
  -1.6423410e-03   1.4949392e-02  -1.4124912e-02   5.7256592e-04  -3.1299840e-03  -2.6257950e-03
  -1.0236975e-03   1.3113381e-02  -3.9753600e-02   1.1121838e-03  -3.4543130e-03  -4.4847692e-03
   2.2039853e-02   1.0585112e-02  -2.1192217e-02   1.1298744e-03  -3.1727293e-03  -4.4155142e-03
  -1.1728398e-02   1.5391416e-02  -2.4060908e-02   1.4337820e-03  -4.0798340e-03  -5.5266249e-03
   2.0564324e-03   7.7525265e-03  -3.6809137e-03   2.5545211e-04  -3.8440106e-03  -3.8527751e-03
  -1.0776015e-02   2.0619294e-02  -1.7552350e-02   1.0525427e-03  -4.8458212e-03  -3.4564133e-03
   1.6501318e-03   2.2200202e-02  -1.6841871e-02   5.8599299e-04  -2.5974707e-03  -2.6807105e-03
  -4.1954131e-03   2.0609751e-02  -3.1421869e-02   9.9082330e-04  -2.9091985e-03  -2.8916663e-03
  -3.7464960e-02   2.0209581e-02  -1.7832396e-02   1.9022756e-04  -3.7265233e-03  -4.9934949e-03
  -6.4876935e-03   6.0925019e-04  -3.1042372e-02   1.4164673e-03  -3.6742040e-03  -3.8800754e-03
  -1.1676916e-02   1.5866901e-03  -2.3360348e-02   1.1418641e-03  -4.0122304e-03  -2.9685858e-03
  -3.8433012e-02  -7.3489420e-04  -3.0136719e-02   9.9398961e-04  -3.9303863e-03  -4.6624117e-03
  -4.6790761e-02   1.9305216e-02  -2.4900909e-02   4.4137127e-04  -5.1155195e-03  -4.9330396e-03
  -2.9962405e-04   1.4351056e-02  -3.0562837e-02   9.2615796e-04  -3.6152590e-03  -3.8153133e-03
  -3.2744799e-02   6.2738207e-03  -3.0367295e-02   1.2066684e-03  -5.2613969e-03  -5.0815041e-03
  -8.0621865e-03   2.0759753e-03  -3.5728767e-02   1.6709879e-03  -4.5048442e-03  -5.6923208e-03
  -3.3070537e-02   6.0108995e-03  -2.7895531e-02   1.5047585e-03  -4.3292134e-03  -4.6334058e-03
   5.3486507e-03   7.2757820e-03  -5.0834358e-03   2.0341375e-04  -4.9266570e-03  -5.0638567e-03
  -5.0030814e-03  -6.3064319e-03  -2.3486066e-02   1.5550576e-03  -3.3618301e-03  -4.2861642e-03
  -1.2943726e-02   9.2103057e-04  -3.6808294e-02   1.5319450e-03  -4.8793745e-03  -5.5739296e-03
  -1.7130834e-02  -1.3368132e-02  -3.0297734e-02   8.4076722e-04  -4.4049200e-03  -5.3219923e-03
  -4.3459856e-03  -1.3835686e-03  -3.3736407e-02   8.1858876e-04  -3.9450185e-03  -4.3116965e-03
  -1.1678625e-02   1.1033123e-02  -8.8078226e-03   3.3359376e-04  -4.5753526e-03  -4.7102245e-03
  -2.6836031e-02   5.7113511e-04  -2.5122098e-02   5.9635938e-03  -5.5126415e-03  -5.5449392e-03
  -2.1571516e-02  -3.5315930e-02  -3.5608063e-02   1.5225851e-03  -4.9362389e-03  -5.2442146e-03
  -2.4719165e-02  -9.5405719e-03  -2.6445348e-02   1.4134156e-03  -4.8025322e-03  -4.9618116e-03
  -3.3232199e-02  -2.1578204e-03  -1.1479890e-02   1.2759271e-03  -4.8200035e-03  -4.9792093e-03
  -3.9670091e-02  -5.5803204e-03  -2.6540983e-02   1.8045605e-03  -4.7756603e-03  -5.1735243e-03
  -3.9223412e-02  -4.2061009e-02  -2.6252176e-02   2.2106212e-03  -5.0244799e-03  -5.1338877e-03
  -1.0214388e-02  -2.0673181e-03  -4.2381113e-02   2.0100834e-03  -4.2832946e-03  -4.3351073e-03
  -3.6030922e-02  -2.4200911e-02  -2.5151731e-02   1.8012386e-03  -5.1676996e-03  -5.9163042e-03
  -5.2804225e-02  -3.4493492e-02  -1.7796488e-02   1.4055911e-03  -5.6251310e-03  -6.5101595e-03
  -2.7129810e-02  -6.3942166e-03  -1.7731851e-02   1.1118593e-03  -5.4169806e-03  -5.4813997e-03
  -3.8834293e-02  -1.6066740e-02  -2.2815970e-02   1.2291256e-03  -4.8080739e-03  -4.8317816e-03
  -2.7507187e-02  -1.1327883e-02  -1.8668128e-02   1.9521668e-03  -4.8537185e-03  -4.7596875e-03
  -1.5469010e-02  -6.2115242e-03  -2.1058984e-02   2.0662193e-03  -4.8160247e-03  -4.8374686e-03
  -5.0422802e-02  -2.4195958e-02  -1.6385085e-02   1.1950007e-03  -5.4075766e-03  -4.9544840e-03
  -5.3937745e-02  -5.8994840e-03  -2.6278993e-02   1.5894644e-03  -6.2703773e-03  -5.7924976e-03
  -5.1589682e-02   1.9223963e-03  -2.3522908e-02   1.8637438e-03  -5.2735986e-03  -4.4607851e-03
  -4.8271905e-02  -7.3539590e-03  -1.8887090e-02   1.5349443e-03  -5.5950017e-03  -5.6379086e-03
  -6.3058040e-02   7.2243486e-03  -3.0174571e-02   1.0544157e-03  -5.4444919e-03  -4.5193587e-03
  -3.2018914e-02  -1.3347762e-03  -1.7084912e-02   1.2013306e-03  -4.8374041e-03  -3.6712643e-03
  -3.3212983e-02  -1.6745084e-02  -3.8296430e-03   1.7568801e-03  -5.6474641e-03  -5.6888958e-03
  -2.6027407e-02  -1.7921521e-02  -1.0666775e-02   9.5696499e-04  -4.5385685e-03  -4.1934662e-03
  -2.6824205e-02  -3.2171166e-02  -8.7231171e-03   1.7417152e-03  -5.0538832e-03  -5.1281851e-03
  -7.0509412e-02  -3.6675185e-02  -2.8936649e-02   1.5062412e-03  -4.7954932e-03  -4.1218906e-03
  -7.0203870e-02  -2.3043154e-02  -1.2467724e-02   1.7205234e-03  -5.8878093e-03  -5.7491739e-03
  -1.2841090e-02  -1.5280167e-02  -1.5263284e-02   1.9418536e-03  -5.1315425e-03  -4.6276835e-03
  -9.6375134e-02  -3.5868537e-02  -8.8713536e-03   1.7773692e-03  -5.7300737e-03  -4.6683834e-03
  -4.4282572e-02  -3.6750247e-02  -1.1171215e-02   2.0069285e-03  -5.3567918e-03  -4.5488910e-03
  -7.6822691e-02  -2.6847573e-02  -8.3222839e-03   1.0409145e-03  -5.9134394e-03  -5.2185286e-03
  -5.2393380e-02  -2.7965591e-02  -2.4987377e-02   1.8534098e-03  -5.2052057e-03  -4.4625859e-03
  -4.3847936e-03   4.0502329e-03  -2.6767160e-02   2.0844387e-03  -4.4258163e-03  -3.5537254e-03
  -4.6786833e-02   1.4977660e-03  -1.2608042e-02   1.6274925e-03  -5.4729558e-03  -5.3398417e-03
  -6.6972366e-02  -3.2779687e-02   2.0485087e-03   1.7924635e-03  -6.1688976e-03  -5.6539473e-03
  -5.9551806e-02  -3.2117215e-02   1.9133087e-03   2.1434096e-03  -5.3203427e-03  -4.5795343e-03
  -6.1161125e-02  -3.5325416e-02  -7.8981360e-03   2.2588772e-03  -6.1224029e-03  -5.9083988e-03
  -7.4526891e-02  -4.7088640e-02   9.0982886e-03   1.8436837e-03  -5.4884477e-03  -5.6421490e-03
  -5.2821065e-02  -3.9035066e-02  -1.3034021e-03   1.5327297e-03  -5.6749454e-03  -5.4264535e-03
  -6.9640216e-02  -3.4706688e-02   3.9633654e-03   2.5809594e-03  -6.2075294e-03  -5.8428803e-03
  -2.9169100e-02  -2.1656222e-02   2.2949471e-03   9.5444863e-04  -5.4111765e-03  -5.4387740e-03
  -4.3819388e-02  -2.3557669e-02  -2.1403017e-02   2.0072656e-03  -5.9610157e-03  -5.2240300e-03
  -7.7483070e-02  -1.7448499e-02  -1.1471561e-02   1.6464262e-03  -5.9337031e-03  -5.6325061e-03
  -5.6465307e-02  -2.6020933e-02  -7.5875075e-04   1.7096887e-03  -6.1445931e-03  -6.5794495e-03
  -6.0810629e-02  -3.2756368e-02  -1.3184128e-02   1.3568435e-03  -5.9626779e-03  -5.7259303e-03
  -4.6020531e-02  -3.5341123e-02  -1.2209813e-02   1.9597208e-03  -6.3229020e-03  -5.7311775e-03
  -3.8246320e-02  -3.0155274e-02  -6.3337882e-03   1.9781411e-03  -6.2425349e-03  -6.5486046e-03
  -6.9609288e-02  -6.2437495e-03  -5.2071527e-03   1.7215778e-03  -6.2720575e-03  -5.8274129e-03
  -3.2557348e-02  -3.8602382e-03  -8.0683119e-03   2.0509685e-03  -5.8593397e-03  -5.8665830e-03
  -3.1411968e-02  -1.9727843e-02  -1.3518022e-02   1.5553418e-03  -5.7155453e-03  -5.6702369e-03
  -4.4581436e-02   7.0107699e-03  -9.5691991e-03   1.0808923e-03  -5.6505956e-03  -4.7145719e-03
