%!PS-Adobe-3.0
%%Creator: (MATLAB, The Mathworks, Inc. Version 9.10.0.1602886 \(R2021a\). Operating System: Windows 10)
%%Title: D:/Studies/K\351palkot\341s/HF/08/spm_2021Apr19.ps
%%CreationDate: 2021-04-19T23:45:02
%%Pages: (atend)
%%BoundingBox:    60    62   510   695
%%LanguageLevel: 2
%%EndComments
%%BeginDefaults
%%EndDefaults
%%BeginProlog
%%EndProlog
%%BeginSetup
%%BeginResource: procset (Apache XML Graphics Std ProcSet) 1.2 0
%%Version: 1.2 0
%%Copyright: (Copyright 2001-2003,2010 The Apache Software Foundation. License terms: http://www.apache.org/licenses/LICENSE-2.0)
/bd{bind def}bind def
/ld{load def}bd
/GR/grestore ld
/GS/gsave ld
/RM/rmoveto ld
/C/curveto ld
/t/show ld
/L/lineto ld
/ML/setmiterlimit ld
/CT/concat ld
/f/fill ld
/N/newpath ld
/S/stroke ld
/CC/setcmykcolor ld
/A/ashow ld
/cp/closepath ld
/RC/setrgbcolor ld
/LJ/setlinejoin ld
/GC/setgray ld
/LW/setlinewidth ld
/M/moveto ld
/re {4 2 roll M
1 index 0 rlineto
0 exch rlineto
neg 0 rlineto
cp } bd
/_ctm matrix def
/_tm matrix def
/BT { _ctm currentmatrix pop matrix _tm copy pop 0 0 moveto } bd
/ET { _ctm setmatrix } bd
/iTm { _ctm setmatrix _tm concat } bd
/Tm { _tm astore pop iTm 0 0 moveto } bd
/ux 0.0 def
/uy 0.0 def
/F {
  /Tp exch def
  /Tf exch def
  Tf findfont Tp scalefont setfont
  /cf Tf def  /cs Tp def
} bd
/ULS {currentpoint /uy exch def /ux exch def} bd
/ULE {
  /Tcx currentpoint pop def
  gsave
  newpath
  cf findfont cs scalefont dup
  /FontMatrix get 0 get /Ts exch def /FontInfo get dup
  /UnderlinePosition get Ts mul /To exch def
  /UnderlineThickness get Ts mul /Tt exch def
  ux uy To add moveto  Tcx uy To add lineto
  Tt setlinewidth stroke
  grestore
} bd
/OLE {
  /Tcx currentpoint pop def
  gsave
  newpath
  cf findfont cs scalefont dup
  /FontMatrix get 0 get /Ts exch def /FontInfo get dup
  /UnderlinePosition get Ts mul /To exch def
  /UnderlineThickness get Ts mul /Tt exch def
  ux uy To add cs add moveto Tcx uy To add cs add lineto
  Tt setlinewidth stroke
  grestore
} bd
/SOE {
  /Tcx currentpoint pop def
  gsave
  newpath
  cf findfont cs scalefont dup
  /FontMatrix get 0 get /Ts exch def /FontInfo get dup
  /UnderlinePosition get Ts mul /To exch def
  /UnderlineThickness get Ts mul /Tt exch def
  ux uy To add cs 10 mul 26 idiv add moveto Tcx uy To add cs 10 mul 26 idiv add lineto
  Tt setlinewidth stroke
  grestore
} bd
/QT {
/Y22 exch store
/X22 exch store
/Y21 exch store
/X21 exch store
currentpoint
/Y21 load 2 mul add 3 div exch
/X21 load 2 mul add 3 div exch
/X21 load 2 mul /X22 load add 3 div
/Y21 load 2 mul /Y22 load add 3 div
/X22 load /Y22 load curveto
} bd
/SSPD {
dup length /d exch dict def
{
/v exch def
/k exch def
currentpagedevice k known {
/cpdv currentpagedevice k get def
v cpdv ne {
/upd false def
/nullv v type /nulltype eq def
/nullcpdv cpdv type /nulltype eq def
nullv nullcpdv or
{
/upd true def
} {
/sametype v type cpdv type eq def
sametype {
v type /arraytype eq {
/vlen v length def
/cpdvlen cpdv length def
vlen cpdvlen eq {
0 1 vlen 1 sub {
/i exch def
/obj v i get def
/cpdobj cpdv i get def
obj cpdobj ne {
/upd true def
exit
} if
} for
} {
/upd true def
} ifelse
} {
v type /dicttype eq {
v {
/dv exch def
/dk exch def
/cpddv cpdv dk get def
dv cpddv ne {
/upd true def
exit
} if
} forall
} {
/upd true def
} ifelse
} ifelse
} if
} ifelse
upd true eq {
d k v put
} if
} if
} if
} forall
d length 0 gt {
d setpagedevice
} if
} bd
/RE { % /NewFontName [NewEncodingArray] /FontName RE -
  findfont dup length dict begin
  {
    1 index /FID ne
    {def} {pop pop} ifelse
  } forall
  /Encoding exch def
  /FontName 1 index def
  currentdict definefont pop
  end
} bind def
%%EndResource
%%BeginResource: procset (Apache XML Graphics EPS ProcSet) 1.0 0
%%Version: 1.0 0
%%Copyright: (Copyright 2002-2003 The Apache Software Foundation. License terms: http://www.apache.org/licenses/LICENSE-2.0)
/BeginEPSF { %def
/b4_Inc_state save def         % Save state for cleanup
/dict_count countdictstack def % Count objects on dict stack
/op_count count 1 sub def      % Count objects on operand stack
userdict begin                 % Push userdict on dict stack
/showpage { } def              % Redefine showpage, { } = null proc
0 setgray 0 setlinecap         % Prepare graphics state
1 setlinewidth 0 setlinejoin
10 setmiterlimit [ ] 0 setdash newpath
/languagelevel where           % If level not equal to 1 then
{pop languagelevel             % set strokeadjust and
1 ne                           % overprint to their defaults.
{false setstrokeadjust false setoverprint
} if
} if
} bd
/EndEPSF { %def
count op_count sub {pop} repeat            % Clean up stacks
countdictstack dict_count sub {end} repeat
b4_Inc_state restore
} bd
%%EndResource
%FOPBeginFontDict
%%IncludeResource: font Courier-Oblique
%%IncludeResource: font Courier-BoldOblique
%%IncludeResource: font Courier-Bold
%%IncludeResource: font ZapfDingbats
%%IncludeResource: font Symbol
%%IncludeResource: font Helvetica
%%IncludeResource: font Helvetica-Oblique
%%IncludeResource: font Helvetica-Bold
%%IncludeResource: font Helvetica-BoldOblique
%%IncludeResource: font Times-Roman
%%IncludeResource: font Times-Italic
%%IncludeResource: font Times-Bold
%%IncludeResource: font Times-BoldItalic
%%IncludeResource: font Courier
%FOPEndFontDict
%%BeginResource: encoding WinAnsiEncoding
/WinAnsiEncoding [
/.notdef /.notdef /.notdef /.notdef /.notdef
/.notdef /.notdef /.notdef /.notdef /.notdef
/.notdef /.notdef /.notdef /.notdef /.notdef
/.notdef /.notdef /.notdef /.notdef /.notdef
/.notdef /.notdef /.notdef /.notdef /.notdef
/.notdef /.notdef /.notdef /.notdef /.notdef
/.notdef /.notdef /space /exclam /quotedbl
/numbersign /dollar /percent /ampersand /quotesingle
/parenleft /parenright /asterisk /plus /comma
/hyphen /period /slash /zero /one
/two /three /four /five /six
/seven /eight /nine /colon /semicolon
/less /equal /greater /question /at
/A /B /C /D /E
/F /G /H /I /J
/K /L /M /N /O
/P /Q /R /S /T
/U /V /W /X /Y
/Z /bracketleft /backslash /bracketright /asciicircum
/underscore /quoteleft /a /b /c
/d /e /f /g /h
/i /j /k /l /m
/n /o /p /q /r
/s /t /u /v /w
/x /y /z /braceleft /bar
/braceright /asciitilde /bullet /Euro /bullet
/quotesinglbase /florin /quotedblbase /ellipsis /dagger
/daggerdbl /circumflex /perthousand /Scaron /guilsinglleft
/OE /bullet /Zcaron /bullet /bullet
/quoteleft /quoteright /quotedblleft /quotedblright /bullet
/endash /emdash /asciitilde /trademark /scaron
/guilsinglright /oe /bullet /zcaron /Ydieresis
/space /exclamdown /cent /sterling /currency
/yen /brokenbar /section /dieresis /copyright
/ordfeminine /guillemotleft /logicalnot /sfthyphen /registered
/macron /degree /plusminus /twosuperior /threesuperior
/acute /mu /paragraph /middot /cedilla
/onesuperior /ordmasculine /guillemotright /onequarter /onehalf
/threequarters /questiondown /Agrave /Aacute /Acircumflex
/Atilde /Adieresis /Aring /AE /Ccedilla
/Egrave /Eacute /Ecircumflex /Edieresis /Igrave
/Iacute /Icircumflex /Idieresis /Eth /Ntilde
/Ograve /Oacute /Ocircumflex /Otilde /Odieresis
/multiply /Oslash /Ugrave /Uacute /Ucircumflex
/Udieresis /Yacute /Thorn /germandbls /agrave
/aacute /acircumflex /atilde /adieresis /aring
/ae /ccedilla /egrave /eacute /ecircumflex
/edieresis /igrave /iacute /icircumflex /idieresis
/eth /ntilde /ograve /oacute /ocircumflex
/otilde /odieresis /divide /oslash /ugrave
/uacute /ucircumflex /udieresis /yacute /thorn
/ydieresis
] def
%%EndResource
%FOPBeginFontReencode
/Courier-Oblique findfont
dup length dict begin
  {1 index /FID ne {def} {pop pop} ifelse} forall
  /Encoding WinAnsiEncoding def
  currentdict
end
/Courier-Oblique exch definefont pop
/Courier-BoldOblique findfont
dup length dict begin
  {1 index /FID ne {def} {pop pop} ifelse} forall
  /Encoding WinAnsiEncoding def
  currentdict
end
/Courier-BoldOblique exch definefont pop
/Courier-Bold findfont
dup length dict begin
  {1 index /FID ne {def} {pop pop} ifelse} forall
  /Encoding WinAnsiEncoding def
  currentdict
end
/Courier-Bold exch definefont pop
/Helvetica findfont
dup length dict begin
  {1 index /FID ne {def} {pop pop} ifelse} forall
  /Encoding WinAnsiEncoding def
  currentdict
end
/Helvetica exch definefont pop
/Helvetica-Oblique findfont
dup length dict begin
  {1 index /FID ne {def} {pop pop} ifelse} forall
  /Encoding WinAnsiEncoding def
  currentdict
end
/Helvetica-Oblique exch definefont pop
/Helvetica-Bold findfont
dup length dict begin
  {1 index /FID ne {def} {pop pop} ifelse} forall
  /Encoding WinAnsiEncoding def
  currentdict
end
/Helvetica-Bold exch definefont pop
/Helvetica-BoldOblique findfont
dup length dict begin
  {1 index /FID ne {def} {pop pop} ifelse} forall
  /Encoding WinAnsiEncoding def
  currentdict
end
/Helvetica-BoldOblique exch definefont pop
/Times-Roman findfont
dup length dict begin
  {1 index /FID ne {def} {pop pop} ifelse} forall
  /Encoding WinAnsiEncoding def
  currentdict
end
/Times-Roman exch definefont pop
/Times-Italic findfont
dup length dict begin
  {1 index /FID ne {def} {pop pop} ifelse} forall
  /Encoding WinAnsiEncoding def
  currentdict
end
/Times-Italic exch definefont pop
/Times-Bold findfont
dup length dict begin
  {1 index /FID ne {def} {pop pop} ifelse} forall
  /Encoding WinAnsiEncoding def
  currentdict
end
/Times-Bold exch definefont pop
/Times-BoldItalic findfont
dup length dict begin
  {1 index /FID ne {def} {pop pop} ifelse} forall
  /Encoding WinAnsiEncoding def
  currentdict
end
/Times-BoldItalic exch definefont pop
/Courier findfont
dup length dict begin
  {1 index /FID ne {def} {pop pop} ifelse} forall
  /Encoding WinAnsiEncoding def
  currentdict
end
/Courier exch definefont pop
%FOPEndFontReencode
%%EndSetup
%%Page: 1 1
%%PageBoundingBox: 0 0 595 842
%%BeginPageSetup
<<
/PageSize [595 842]
/ImagingBBox null
>> setpagedevice
[1 0 0 -1 0 842] CT
%%EndPageSetup
GS
[0.7498 0 0 0.74969 43.217 55.33821] CT
N
0 0 M
678 0 L
678 977 L
0 977 L
0 0 L
cp
clip
1 GC
N
0 0 678 977 re
f
GR
GS
[0.7498 0 0 0.74969 43.217 55.33821] CT
1 GC
N
0 0 678 977 re
f
GR
GS
[0.7498 0 0 0.74969 297.39992 162.54343] CT
/Helvetica-Bold 21.333 F
GS
[1 0 0 1 0 0] CT
-77.5 -5 moveto 
1 -1 scale
(Image realignment) t 
GR
GR
GS
[0.7498 0 0 0.74969 134.84273 180.16107] CT
/Helvetica 13.333 F
GS
[1 0 0 1 0 0] CT
0 5 moveto 
1 -1 scale
(1   D:\\Studies\\K\351palkot\341s\\HF\\08\\swrbold.nii,1) t 
GR
GR
GS
[0.7498 0 0 0.74969 134.84273 191.85619] CT
/Helvetica 13.333 F
GS
[1 0 0 1 0 0] CT
0 5 moveto 
1 -1 scale
(2   D:\\Studies\\K\351palkot\341s\\HF\\08\\swrbold.nii,2) t 
GR
GR
GS
[0.7498 0 0 0.74969 134.84273 203.5513] CT
/Helvetica 13.333 F
GS
[1 0 0 1 0 0] CT
0 5 moveto 
1 -1 scale
(3   D:\\Studies\\K\351palkot\341s\\HF\\08\\swrbold.nii,3) t 
GR
GR
GS
[0.7498 0 0 0.74969 134.84273 215.24641] CT
/Helvetica 13.333 F
GS
[1 0 0 1 0 0] CT
0 5 moveto 
1 -1 scale
(4   D:\\Studies\\K\351palkot\341s\\HF\\08\\swrbold.nii,4) t 
GR
GR
GS
[0.7498 0 0 0.74969 134.84273 226.94154] CT
/Helvetica 13.333 F
GS
[1 0 0 1 0 0] CT
0 5 moveto 
1 -1 scale
(5   D:\\Studies\\K\351palkot\341s\\HF\\08\\swrbold.nii,5) t 
GR
GR
GS
[0.7498 0 0 0.74969 134.84273 238.63665] CT
/Helvetica 13.333 F
GS
[1 0 0 1 0 0] CT
0 5 moveto 
1 -1 scale
(6   D:\\Studies\\K\351palkot\341s\\HF\\08\\swrbold.nii,6) t 
GR
GR
GS
[0.7498 0 0 0.74969 134.84273 250.33177] CT
/Helvetica 13.333 F
GS
[1 0 0 1 0 0] CT
0 5 moveto 
1 -1 scale
(7   D:\\Studies\\K\351palkot\341s\\HF\\08\\swrbold.nii,7) t 
GR
GR
GS
[0.7498 0 0 0.74969 134.84273 262.02689] CT
/Helvetica 13.333 F
GS
[1 0 0 1 0 0] CT
0 5 moveto 
1 -1 scale
(8   D:\\Studies\\K\351palkot\341s\\HF\\08\\swrbold.nii,8) t 
GR
GR
GS
[0.7498 0 0 0.74969 134.84273 273.72199] CT
/Helvetica 13.333 F
GS
[1 0 0 1 0 0] CT
0 5 moveto 
1 -1 scale
(9   D:\\Studies\\K\351palkot\341s\\HF\\08\\swrbold.nii,9) t 
GR
GR
GS
[0.7498 0 0 0.74969 134.84273 285.41711] CT
/Helvetica 13.333 F
GS
[1 0 0 1 0 0] CT
0 5 moveto 
1 -1 scale
(10  D:\\Studies\\K\351palkot\341s\\HF\\08\\swrbold.nii,10) t 
GR
GR
GS
[0.7498 0 0 0.74969 134.84273 297.11223] CT
/Helvetica 13.333 F
GS
[1 0 0 1 0 0] CT
0 5 moveto 
1 -1 scale
(11  D:\\Studies\\K\351palkot\341s\\HF\\08\\swrbold.nii,11) t 
GR
GR
GS
[0.7498 0 0 0.74969 134.84273 308.80735] CT
/Helvetica 13.333 F
GS
[1 0 0 1 0 0] CT
0 5 moveto 
1 -1 scale
(12  D:\\Studies\\K\351palkot\341s\\HF\\08\\swrbold.nii,12) t 
GR
GR
GS
[0.7498 0 0 0.74969 134.84273 320.50247] CT
/Helvetica 13.333 F
GS
[1 0 0 1 0 0] CT
0 5 moveto 
1 -1 scale
(................ etc) t 
GR
GR
GS
[0.7498 0 0 0.74969 43.217 55.33821] CT
1 GC
N
68 635 M
610 635 L
610 440 L
68 440 L
cp
f
GR
GS
[0.7498 0 0 0.74969 43.217 55.33821] CT
0.873 GC
1 LJ
0.667 LW
N
68 635 M
68 440 L
S
GR
GS
[0.7498 0 0 0.74969 43.217 55.33821] CT
0.873 GC
1 LJ
0.667 LW
N
145.429 635 M
145.429 440 L
S
GR
GS
[0.7498 0 0 0.74969 43.217 55.33821] CT
0.873 GC
1 LJ
0.667 LW
N
222.857 635 M
222.857 440 L
S
GR
GS
[0.7498 0 0 0.74969 43.217 55.33821] CT
0.873 GC
1 LJ
0.667 LW
N
300.286 635 M
300.286 440 L
S
GR
GS
[0.7498 0 0 0.74969 43.217 55.33821] CT
0.873 GC
1 LJ
0.667 LW
N
377.714 635 M
377.714 440 L
S
GR
GS
[0.7498 0 0 0.74969 43.217 55.33821] CT
0.873 GC
1 LJ
0.667 LW
N
455.143 635 M
455.143 440 L
S
GR
GS
[0.7498 0 0 0.74969 43.217 55.33821] CT
0.873 GC
1 LJ
0.667 LW
N
532.571 635 M
532.571 440 L
S
GR
GS
[0.7498 0 0 0.74969 43.217 55.33821] CT
0.873 GC
1 LJ
0.667 LW
N
610 635 M
610 440 L
S
GR
GS
[0.7498 0 0 0.74969 43.217 55.33821] CT
0.873 GC
1 LJ
0.667 LW
N
610 635 M
68 635 L
S
GR
GS
[0.7498 0 0 0.74969 43.217 55.33821] CT
0.873 GC
1 LJ
0.667 LW
N
610 596 M
68 596 L
S
GR
GS
[0.7498 0 0 0.74969 43.217 55.33821] CT
0.873 GC
1 LJ
0.667 LW
N
610 557 M
68 557 L
S
GR
GS
[0.7498 0 0 0.74969 43.217 55.33821] CT
0.873 GC
1 LJ
0.667 LW
N
610 518 M
68 518 L
S
GR
GS
[0.7498 0 0 0.74969 43.217 55.33821] CT
0.873 GC
1 LJ
0.667 LW
N
610 479 M
68 479 L
S
GR
GS
[0.7498 0 0 0.74969 43.217 55.33821] CT
0.873 GC
1 LJ
0.667 LW
N
610 440 M
68 440 L
S
GR
GS
[0.7498 0 0 0.74969 43.217 55.33821] CT
2 setlinecap
1 LJ
0.667 LW
N
68 635 M
610 635 L
S
GR
GS
[0.7498 0 0 0.74969 43.217 55.33821] CT
2 setlinecap
1 LJ
0.667 LW
N
68 635 M
68 629.58 L
S
GR
GS
[0.7498 0 0 0.74969 43.217 55.33821] CT
2 setlinecap
1 LJ
0.667 LW
N
145.429 635 M
145.429 629.58 L
S
GR
GS
[0.7498 0 0 0.74969 43.217 55.33821] CT
2 setlinecap
1 LJ
0.667 LW
N
222.857 635 M
222.857 629.58 L
S
GR
GS
[0.7498 0 0 0.74969 43.217 55.33821] CT
2 setlinecap
1 LJ
0.667 LW
N
300.286 635 M
300.286 629.58 L
S
GR
GS
[0.7498 0 0 0.74969 43.217 55.33821] CT
2 setlinecap
1 LJ
0.667 LW
N
377.714 635 M
377.714 629.58 L
S
GR
GS
[0.7498 0 0 0.74969 43.217 55.33821] CT
2 setlinecap
1 LJ
0.667 LW
N
455.143 635 M
455.143 629.58 L
S
GR
GS
[0.7498 0 0 0.74969 43.217 55.33821] CT
2 setlinecap
1 LJ
0.667 LW
N
532.571 635 M
532.571 629.58 L
S
GR
GS
[0.7498 0 0 0.74969 43.217 55.33821] CT
2 setlinecap
1 LJ
0.667 LW
N
610 635 M
610 629.58 L
S
GR
GS
[0.7498 0 0 0.74969 94.2035 534.78796] CT
/Helvetica 12.667 F
GS
[1 0 0 1 0 0] CT
-3 12 moveto 
1 -1 scale
(0) t 
GR
GR
GS
[0.7498 0 0 0.74969 152.25955 534.78796] CT
/Helvetica 12.667 F
GS
[1 0 0 1 0 0] CT
-6 12 moveto 
1 -1 scale
(20) t 
GR
GR
GS
[0.7498 0 0 0.74969 210.3156 534.78796] CT
/Helvetica 12.667 F
GS
[1 0 0 1 0 0] CT
-6 12 moveto 
1 -1 scale
(40) t 
GR
GR
GS
[0.7498 0 0 0.74969 268.37163 534.78796] CT
/Helvetica 12.667 F
GS
[1 0 0 1 0 0] CT
-6 12 moveto 
1 -1 scale
(60) t 
GR
GR
GS
[0.7498 0 0 0.74969 326.4277 534.78796] CT
/Helvetica 12.667 F
GS
[1 0 0 1 0 0] CT
-6 12 moveto 
1 -1 scale
(80) t 
GR
GR
GS
[0.7498 0 0 0.74969 384.48374 534.78796] CT
/Helvetica 12.667 F
GS
[1 0 0 1 0 0] CT
-9 12 moveto 
1 -1 scale
(100) t 
GR
GR
GS
[0.7498 0 0 0.74969 442.53977 534.78796] CT
/Helvetica 12.667 F
GS
[1 0 0 1 0 0] CT
-9 12 moveto 
1 -1 scale
(120) t 
GR
GR
GS
[0.7498 0 0 0.74969 500.59584 534.78796] CT
/Helvetica 12.667 F
GS
[1 0 0 1 0 0] CT
-9 12 moveto 
1 -1 scale
(140) t 
GR
GR
GS
[0.7498 0 0 0.74969 297.39987 546.78295] CT
/Helvetica 13.933 F
GS
[1 0 0 1 0 0] CT
-16 14 moveto 
1 -1 scale
(image) t 
GR
GR
GS
[0.7498 0 0 0.74969 43.217 55.33821] CT
2 setlinecap
1 LJ
0.667 LW
N
68 635 M
68 440 L
S
GR
GS
[0.7498 0 0 0.74969 43.217 55.33821] CT
2 setlinecap
1 LJ
0.667 LW
N
68 635 M
73.42 635 L
S
GR
GS
[0.7498 0 0 0.74969 43.217 55.33821] CT
2 setlinecap
1 LJ
0.667 LW
N
68 596 M
73.42 596 L
S
GR
GS
[0.7498 0 0 0.74969 43.217 55.33821] CT
2 setlinecap
1 LJ
0.667 LW
N
68 557 M
73.42 557 L
S
GR
GS
[0.7498 0 0 0.74969 43.217 55.33821] CT
2 setlinecap
1 LJ
0.667 LW
N
68 518 M
73.42 518 L
S
GR
GS
[0.7498 0 0 0.74969 43.217 55.33821] CT
2 setlinecap
1 LJ
0.667 LW
N
68 479 M
73.42 479 L
S
GR
GS
[0.7498 0 0 0.74969 43.217 55.33821] CT
2 setlinecap
1 LJ
0.667 LW
N
68 440 M
73.42 440 L
S
GR
GS
[0.7498 0 0 0.74969 90.8044 531.38938] CT
/Helvetica 12.667 F
GS
[1 0 0 1 0 0] CT
-24 4.5 moveto 
1 -1 scale
(-0.06) t 
GR
GR
GS
[0.7498 0 0 0.74969 90.8044 502.15159] CT
/Helvetica 12.667 F
GS
[1 0 0 1 0 0] CT
-24 4.5 moveto 
1 -1 scale
(-0.04) t 
GR
GR
GS
[0.7498 0 0 0.74969 90.8044 472.91381] CT
/Helvetica 12.667 F
GS
[1 0 0 1 0 0] CT
-24 4.5 moveto 
1 -1 scale
(-0.02) t 
GR
GR
GS
[0.7498 0 0 0.74969 90.8044 443.67602] CT
/Helvetica 12.667 F
GS
[1 0 0 1 0 0] CT
-6 4.5 moveto 
1 -1 scale
(0) t 
GR
GR
GS
[0.7498 0 0 0.74969 90.8044 414.43823] CT
/Helvetica 12.667 F
GS
[1 0 0 1 0 0] CT
-21 4.5 moveto 
1 -1 scale
(0.02) t 
GR
GR
GS
[0.7498 0 0 0.74969 90.8044 385.20044] CT
/Helvetica 12.667 F
GS
[1 0 0 1 0 0] CT
-21 4.5 moveto 
1 -1 scale
(0.04) t 
GR
GR
GS
[0 -0.74969 0.7498 0 70.30983 458.29482] CT
/Helvetica 13.933 F
GS
[1 0 0 1 0 0] CT
-9.5 -3 moveto 
1 -1 scale
(mm) t 
GR
GR
GS
[0.7498 0 0 0.74969 297.39992 382.20169] CT
/Helvetica-Bold 21.333 F
GS
[1 0 0 1 0 0] CT
-45 -5 moveto 
1 -1 scale
(translation) t 
GR
GR
GS
[0.7498 0 0 0.74969 43.217 55.33821] CT
0 0 1 RC
1 LJ
0.667 LW
N
71.871 518 M
75.743 508.916 L
79.614 524.767 L
83.486 537.582 L
87.357 527.044 L
91.229 524.322 L
95.1 529.014 L
98.971 546.859 L
102.843 545.169 L
106.714 534.229 L
110.586 533.804 L
114.457 531.084 L
118.329 531.651 L
122.2 535.235 L
126.071 537.985 L
129.943 539.419 L
133.814 529.816 L
137.686 542.558 L
141.557 549.702 L
145.429 536.494 L
149.3 535.112 L
153.171 548.327 L
157.043 559.349 L
160.914 541.749 L
164.786 545.598 L
168.657 531.47 L
172.529 537.653 L
176.4 526.802 L
180.271 526.106 L
184.143 520.571 L
188.014 536.934 L
191.886 538.532 L
195.757 548.654 L
199.629 538.891 L
203.5 537.96 L
207.371 535.783 L
211.243 532.626 L
215.114 554.652 L
218.986 540.59 L
222.857 554.012 L
226.729 545.17 L
230.6 543.159 L
234.471 562.967 L
238.343 543.311 L
242.214 535.234 L
246.086 544.792 L
249.957 538.014 L
253.829 554.118 L
257.7 558.397 L
261.571 551.811 L
265.443 549.865 L
269.314 558.156 L
273.186 561.424 L
277.057 564.838 L
280.929 572.422 L
284.8 561.964 L
288.671 555.945 L
292.543 558.543 L
296.414 554.766 L
300.286 553.878 L
304.157 554.035 L
308.029 568.343 L
311.9 572.956 L
315.771 551.156 L
319.643 555.087 L
323.514 567.794 L
327.386 555.327 L
331.257 564.22 L
335.129 567.385 L
339 564.412 L
342.871 570.244 L
346.743 561.581 L
350.614 564.641 L
354.486 567.118 L
358.357 562.603 L
362.229 576.131 L
366.1 580.66 L
369.971 574.878 L
373.843 574.113 L
377.714 564.17 L
381.586 582.206 L
385.457 587.451 L
389.329 574.648 L
393.2 572.128 L
397.071 575.497 L
400.943 582.748 L
404.814 577.329 L
408.686 565.95 L
412.557 568.699 L
416.429 564.95 L
420.3 567.815 L
424.171 563.819 L
428.043 578.082 L
431.914 558.564 L
435.786 590.604 L
439.657 561.157 L
443.529 584.983 L
447.4 558.849 L
451.271 570.608 L
455.143 571.032 L
459.014 573.655 L
462.886 568.406 L
466.757 573.329 L
470.629 569.748 L
474.5 583.093 L
478.371 575.891 L
482.243 589.912 L
486.114 589.578 L
489.986 581.963 L
493.857 578.733 L
497.729 572.948 L
501.6 581.896 L
505.471 586.26 L
509.343 587.646 L
513.214 580.339 L
517.086 575.332 L
520.957 582.955 L
524.829 582.756 L
528.7 589.641 L
532.571 582.269 L
536.443 560.675 L
S
GR
GS
[0.7498 0 0 0.74969 43.217 55.33821] CT
0 0.502 0 RC
1 LJ
0.667 LW
N
71.871 518 M
75.743 510.151 L
79.614 525.024 L
83.486 521.711 L
87.357 522.673 L
91.229 538.953 L
95.1 518.448 L
98.971 503.333 L
102.843 491.762 L
106.714 496.725 L
110.586 498.858 L
114.457 509.525 L
118.329 511.81 L
122.2 510.992 L
126.071 513.619 L
129.943 470.748 L
133.814 502.943 L
137.686 502.375 L
141.557 513.909 L
145.429 521.355 L
149.3 512.351 L
153.171 493.693 L
157.043 525.173 L
160.914 516.801 L
164.786 515.024 L
168.657 532.361 L
172.529 528.292 L
176.4 515.878 L
180.271 510.288 L
184.143 518.339 L
188.014 525.001 L
191.886 533.89 L
195.757 533.403 L
199.629 533.531 L
203.5 528.151 L
207.371 509.874 L
211.243 500.175 L
215.114 494.771 L
218.986 502.167 L
222.857 510.76 L
226.729 516.247 L
230.6 501.232 L
234.471 505.783 L
238.343 513.603 L
242.214 522.194 L
246.086 536.882 L
249.957 551.542 L
253.829 536.894 L
257.7 535.289 L
261.571 522.205 L
265.443 511.863 L
269.314 512.076 L
273.186 520.846 L
277.057 516.596 L
280.929 525.025 L
284.8 515.28 L
288.671 521.128 L
292.543 520.311 L
296.414 534.185 L
300.286 539.326 L
304.157 534.31 L
308.029 548.024 L
311.9 536.975 L
315.771 520.298 L
319.643 504.538 L
323.514 507.054 L
327.386 501.066 L
331.257 499.22 L
335.129 504.272 L
339 510.923 L
342.871 513.383 L
346.743 516.648 L
350.614 533.831 L
354.486 507.121 L
358.357 524.529 L
362.229 514.972 L
366.1 528.02 L
369.971 535.209 L
373.843 510.499 L
377.714 503.775 L
381.586 509.322 L
385.457 501.975 L
389.329 509.053 L
393.2 514.097 L
397.071 520.587 L
400.943 519.922 L
404.814 521.466 L
408.686 530.962 L
412.557 532.263 L
416.429 544.086 L
420.3 543.824 L
424.171 533.035 L
428.043 521.602 L
431.914 504.28 L
435.786 512.083 L
439.657 505.556 L
443.529 510.607 L
447.4 511.685 L
451.271 511.421 L
455.143 519.795 L
459.014 511.167 L
462.886 519.961 L
466.757 533.995 L
470.629 545.262 L
474.5 535.726 L
478.371 534.822 L
482.243 520.227 L
486.114 518.595 L
489.986 517.619 L
493.857 512.881 L
497.729 516.209 L
501.6 530.314 L
505.471 523.964 L
509.343 534.664 L
513.214 528.099 L
517.086 526.98 L
520.957 530.889 L
524.829 537.542 L
528.7 549.871 L
532.571 551.392 L
536.443 544.458 L
S
GR
GS
[0.7498 0 0 0.74969 43.217 55.33821] CT
1 0 0 RC
1 LJ
0.667 LW
N
71.871 518 M
75.743 527.686 L
79.614 522.881 L
83.486 522.613 L
87.357 509.12 L
91.229 520.138 L
95.1 549.931 L
98.971 585.533 L
102.843 579.712 L
106.714 558.1 L
110.586 551.916 L
114.457 549.819 L
118.329 536.658 L
122.2 537.412 L
126.071 537.81 L
129.943 487.194 L
133.814 602.546 L
137.686 564.07 L
141.557 502.272 L
145.429 524.236 L
149.3 528.065 L
153.171 520.759 L
157.043 526.723 L
160.914 513.901 L
164.786 505.415 L
168.657 504.436 L
172.529 523.655 L
176.4 512.182 L
180.271 555.668 L
184.143 539.468 L
188.014 514.677 L
191.886 506.792 L
195.757 501.562 L
199.629 508.507 L
203.5 526.427 L
207.371 552.305 L
211.243 564.506 L
215.114 550.668 L
218.986 545.899 L
222.857 557.277 L
226.729 558.852 L
230.6 568.859 L
234.471 551.504 L
238.343 541.557 L
242.214 524.666 L
246.086 522.16 L
249.957 511.87 L
253.829 507.793 L
257.7 503.981 L
261.571 532.64 L
265.443 530.962 L
269.314 526.588 L
273.186 530.671 L
277.057 530.788 L
280.929 524.004 L
284.8 537.681 L
288.671 534.526 L
292.543 539.252 L
296.414 525.695 L
300.286 522.262 L
304.157 524.332 L
308.029 525.993 L
311.9 520.369 L
315.771 528.163 L
319.643 551.425 L
323.514 548.825 L
327.386 541.423 L
331.257 541.78 L
335.129 541.915 L
339 548.587 L
342.871 525.931 L
346.743 526.384 L
350.614 503.845 L
354.486 579.697 L
358.357 552.187 L
362.229 537.04 L
366.1 522.168 L
369.971 521.44 L
373.843 532.992 L
377.714 568.303 L
381.586 537.577 L
385.457 534.991 L
389.329 534.913 L
393.2 529.398 L
397.071 531.915 L
400.943 526.607 L
404.814 514.312 L
408.686 520.939 L
412.557 521.618 L
416.429 519.054 L
420.3 515.34 L
424.171 510.361 L
428.043 508.443 L
431.914 523.689 L
435.786 522.502 L
439.657 522.845 L
443.529 504.894 L
447.4 517.719 L
451.271 495.368 L
455.143 507.454 L
459.014 516.221 L
462.886 523.15 L
466.757 517.423 L
470.629 494.896 L
474.5 502.086 L
478.371 503.747 L
482.243 525.604 L
486.114 509.826 L
489.986 516.265 L
493.857 519.355 L
497.729 523.438 L
501.6 515.602 L
505.471 504.533 L
509.343 490.319 L
513.214 498.872 L
517.086 504.49 L
520.957 495.895 L
524.829 507.009 L
528.7 501.242 L
532.571 503.744 L
536.443 507.713 L
S
GR
GS
[0.7498 0 0 0.74969 43.217 55.33821] CT
1 GC
N
322 626 M
322 579 L
220 579 L
220 626 L
cp
f
GR
GS
[0.7498 0 0 0.74969 243.41397 496.1541] CT
/Helvetica 11.4 F
GS
[1 0 0 1 0 0] CT
0 4 moveto 
1 -1 scale
(x translation) t 
GR
GR
GS
[0.7498 0 0 0.74969 43.217 55.33821] CT
0 0 1 RC
1 LJ
0.667 LW
N
224 588 M
264 588 L
S
GR
GS
[0.7498 0 0 0.74969 243.41397 507.02456] CT
/Helvetica 11.4 F
GS
[1 0 0 1 0 0] CT
0 4 moveto 
1 -1 scale
(y translation) t 
GR
GR
GS
[0.7498 0 0 0.74969 43.217 55.33821] CT
0 0.502 0 RC
1 LJ
0.667 LW
N
224 602.5 M
264 602.5 L
S
GR
GS
[0.7498 0 0 0.74969 243.41397 517.89502] CT
/Helvetica 11.4 F
GS
[1 0 0 1 0 0] CT
0 4 moveto 
1 -1 scale
(z translation) t 
GR
GR
GS
[0.7498 0 0 0.74969 43.217 55.33821] CT
1 0 0 RC
1 LJ
0.667 LW
N
224 617 M
264 617 L
S
GR
GS
[0.7498 0 0 0.74969 43.217 55.33821] CT
10.0 ML
0.667 LW
N
220 626 M
220 579 L
322 579 L
322 626 L
cp
S
GR
GS
[0.7498 0 0 0.74969 43.217 55.33821] CT
1 GC
N
68 928 M
610 928 L
610 733 L
68 733 L
cp
f
GR
GS
[0.7498 0 0 0.74969 43.217 55.33821] CT
0.873 GC
1 LJ
0.667 LW
N
68 928 M
68 733 L
S
GR
GS
[0.7498 0 0 0.74969 43.217 55.33821] CT
0.873 GC
1 LJ
0.667 LW
N
145.429 928 M
145.429 733 L
S
GR
GS
[0.7498 0 0 0.74969 43.217 55.33821] CT
0.873 GC
1 LJ
0.667 LW
N
222.857 928 M
222.857 733 L
S
GR
GS
[0.7498 0 0 0.74969 43.217 55.33821] CT
0.873 GC
1 LJ
0.667 LW
N
300.286 928 M
300.286 733 L
S
GR
GS
[0.7498 0 0 0.74969 43.217 55.33821] CT
0.873 GC
1 LJ
0.667 LW
N
377.714 928 M
377.714 733 L
S
GR
GS
[0.7498 0 0 0.74969 43.217 55.33821] CT
0.873 GC
1 LJ
0.667 LW
N
455.143 928 M
455.143 733 L
S
GR
GS
[0.7498 0 0 0.74969 43.217 55.33821] CT
0.873 GC
1 LJ
0.667 LW
N
532.571 928 M
532.571 733 L
S
GR
GS
[0.7498 0 0 0.74969 43.217 55.33821] CT
0.873 GC
1 LJ
0.667 LW
N
610 928 M
610 733 L
S
GR
GS
[0.7498 0 0 0.74969 43.217 55.33821] CT
0.873 GC
1 LJ
0.667 LW
N
610 928 M
68 928 L
S
GR
GS
[0.7498 0 0 0.74969 43.217 55.33821] CT
0.873 GC
1 LJ
0.667 LW
N
610 895.5 M
68 895.5 L
S
GR
GS
[0.7498 0 0 0.74969 43.217 55.33821] CT
0.873 GC
1 LJ
0.667 LW
N
610 863 M
68 863 L
S
GR
GS
[0.7498 0 0 0.74969 43.217 55.33821] CT
0.873 GC
1 LJ
0.667 LW
N
610 830.5 M
68 830.5 L
S
GR
GS
[0.7498 0 0 0.74969 43.217 55.33821] CT
0.873 GC
1 LJ
0.667 LW
N
610 798 M
68 798 L
S
GR
GS
[0.7498 0 0 0.74969 43.217 55.33821] CT
0.873 GC
1 LJ
0.667 LW
N
610 765.5 M
68 765.5 L
S
GR
GS
[0.7498 0 0 0.74969 43.217 55.33821] CT
0.873 GC
1 LJ
0.667 LW
N
610 733 M
68 733 L
S
GR
GS
[0.7498 0 0 0.74969 43.217 55.33821] CT
2 setlinecap
1 LJ
0.667 LW
N
68 928 M
610 928 L
S
GR
GS
[0.7498 0 0 0.74969 43.217 55.33821] CT
2 setlinecap
1 LJ
0.667 LW
N
68 928 M
68 922.58 L
S
GR
GS
[0.7498 0 0 0.74969 43.217 55.33821] CT
2 setlinecap
1 LJ
0.667 LW
N
145.429 928 M
145.429 922.58 L
S
GR
GS
[0.7498 0 0 0.74969 43.217 55.33821] CT
2 setlinecap
1 LJ
0.667 LW
N
222.857 928 M
222.857 922.58 L
S
GR
GS
[0.7498 0 0 0.74969 43.217 55.33821] CT
2 setlinecap
1 LJ
0.667 LW
N
300.286 928 M
300.286 922.58 L
S
GR
GS
[0.7498 0 0 0.74969 43.217 55.33821] CT
2 setlinecap
1 LJ
0.667 LW
N
377.714 928 M
377.714 922.58 L
S
GR
GS
[0.7498 0 0 0.74969 43.217 55.33821] CT
2 setlinecap
1 LJ
0.667 LW
N
455.143 928 M
455.143 922.58 L
S
GR
GS
[0.7498 0 0 0.74969 43.217 55.33821] CT
2 setlinecap
1 LJ
0.667 LW
N
532.571 928 M
532.571 922.58 L
S
GR
GS
[0.7498 0 0 0.74969 43.217 55.33821] CT
2 setlinecap
1 LJ
0.667 LW
N
610 928 M
610 922.58 L
S
GR
GS
[0.7498 0 0 0.74969 94.2035 754.44622] CT
/Helvetica 12.667 F
GS
[1 0 0 1 0 0] CT
-3 12 moveto 
1 -1 scale
(0) t 
GR
GR
GS
[0.7498 0 0 0.74969 152.25955 754.44622] CT
/Helvetica 12.667 F
GS
[1 0 0 1 0 0] CT
-6 12 moveto 
1 -1 scale
(20) t 
GR
GR
GS
[0.7498 0 0 0.74969 210.3156 754.44622] CT
/Helvetica 12.667 F
GS
[1 0 0 1 0 0] CT
-6 12 moveto 
1 -1 scale
(40) t 
GR
GR
GS
[0.7498 0 0 0.74969 268.37163 754.44622] CT
/Helvetica 12.667 F
GS
[1 0 0 1 0 0] CT
-6 12 moveto 
1 -1 scale
(60) t 
GR
GR
GS
[0.7498 0 0 0.74969 326.4277 754.44622] CT
/Helvetica 12.667 F
GS
[1 0 0 1 0 0] CT
-6 12 moveto 
1 -1 scale
(80) t 
GR
GR
GS
[0.7498 0 0 0.74969 384.48374 754.44622] CT
/Helvetica 12.667 F
GS
[1 0 0 1 0 0] CT
-9 12 moveto 
1 -1 scale
(100) t 
GR
GR
GS
[0.7498 0 0 0.74969 442.53977 754.44622] CT
/Helvetica 12.667 F
GS
[1 0 0 1 0 0] CT
-9 12 moveto 
1 -1 scale
(120) t 
GR
GR
GS
[0.7498 0 0 0.74969 500.59584 754.44622] CT
/Helvetica 12.667 F
GS
[1 0 0 1 0 0] CT
-9 12 moveto 
1 -1 scale
(140) t 
GR
GR
GS
[0.7498 0 0 0.74969 297.39987 766.44121] CT
/Helvetica 13.933 F
GS
[1 0 0 1 0 0] CT
-16 14 moveto 
1 -1 scale
(image) t 
GR
GR
GS
[0.7498 0 0 0.74969 43.217 55.33821] CT
2 setlinecap
1 LJ
0.667 LW
N
68 928 M
68 733 L
S
GR
GS
[0.7498 0 0 0.74969 43.217 55.33821] CT
2 setlinecap
1 LJ
0.667 LW
N
68 928 M
73.42 928 L
S
GR
GS
[0.7498 0 0 0.74969 43.217 55.33821] CT
2 setlinecap
1 LJ
0.667 LW
N
68 895.5 M
73.42 895.5 L
S
GR
GS
[0.7498 0 0 0.74969 43.217 55.33821] CT
2 setlinecap
1 LJ
0.667 LW
N
68 863 M
73.42 863 L
S
GR
GS
[0.7498 0 0 0.74969 43.217 55.33821] CT
2 setlinecap
1 LJ
0.667 LW
N
68 830.5 M
73.42 830.5 L
S
GR
GS
[0.7498 0 0 0.74969 43.217 55.33821] CT
2 setlinecap
1 LJ
0.667 LW
N
68 798 M
73.42 798 L
S
GR
GS
[0.7498 0 0 0.74969 43.217 55.33821] CT
2 setlinecap
1 LJ
0.667 LW
N
68 765.5 M
73.42 765.5 L
S
GR
GS
[0.7498 0 0 0.74969 43.217 55.33821] CT
2 setlinecap
1 LJ
0.667 LW
N
68 733 M
73.42 733 L
S
GR
GS
[0.7498 0 0 0.74969 90.8044 751.04764] CT
/Helvetica 12.667 F
GS
[1 0 0 1 0 0] CT
-18 4.5 moveto 
1 -1 scale
(-0.2) t 
GR
GR
GS
[0.7498 0 0 0.74969 90.8044 726.68282] CT
/Helvetica 12.667 F
GS
[1 0 0 1 0 0] CT
-24 4.5 moveto 
1 -1 scale
(-0.15) t 
GR
GR
GS
[0.7498 0 0 0.74969 90.8044 702.31799] CT
/Helvetica 12.667 F
GS
[1 0 0 1 0 0] CT
-18 4.5 moveto 
1 -1 scale
(-0.1) t 
GR
GR
GS
[0.7498 0 0 0.74969 90.8044 677.95317] CT
/Helvetica 12.667 F
GS
[1 0 0 1 0 0] CT
-24 4.5 moveto 
1 -1 scale
(-0.05) t 
GR
GR
GS
[0.7498 0 0 0.74969 90.8044 653.58835] CT
/Helvetica 12.667 F
GS
[1 0 0 1 0 0] CT
-6 4.5 moveto 
1 -1 scale
(0) t 
GR
GR
GS
[0.7498 0 0 0.74969 90.8044 629.22352] CT
/Helvetica 12.667 F
GS
[1 0 0 1 0 0] CT
-21 4.5 moveto 
1 -1 scale
(0.05) t 
GR
GR
GS
[0.7498 0 0 0.74969 90.8044 604.8587] CT
/Helvetica 12.667 F
GS
[1 0 0 1 0 0] CT
-15 4.5 moveto 
1 -1 scale
(0.1) t 
GR
GR
GS
[0 -0.74969 0.7498 0 70.30983 677.95312] CT
/Helvetica 13.933 F
GS
[1 0 0 1 0 0] CT
-21 -3 moveto 
1 -1 scale
(degrees) t 
GR
GR
GS
[0.7498 0 0 0.74969 297.39992 601.85995] CT
/Helvetica-Bold 21.333 F
GS
[1 0 0 1 0 0] CT
-33 -5 moveto 
1 -1 scale
(rotation) t 
GR
GR
GS
[0.7498 0 0 0.74969 43.217 55.33821] CT
0 0 1 RC
1 LJ
0.667 LW
N
71.871 798 M
75.743 802.61 L
79.614 806.606 L
83.486 813.96 L
87.357 816.94 L
91.229 805.744 L
95.1 792.514 L
98.971 779.654 L
102.843 790.775 L
106.714 790.916 L
110.586 788.769 L
114.457 783.3 L
118.329 803.397 L
122.2 799.162 L
126.071 796.081 L
129.943 872.472 L
133.814 755.367 L
137.686 813.707 L
141.557 816.961 L
145.429 815.355 L
149.3 804.396 L
153.171 805.724 L
157.043 795.524 L
160.914 810.328 L
164.786 809.242 L
168.657 822.567 L
172.529 809.195 L
176.4 820.04 L
180.271 803.129 L
184.143 811.875 L
188.014 817.938 L
191.886 811.611 L
195.757 808.818 L
199.629 810.125 L
203.5 793.802 L
207.371 787.509 L
211.243 775.869 L
215.114 792.351 L
218.986 795.06 L
222.857 778.378 L
226.729 775.387 L
230.6 768.517 L
234.471 783.832 L
238.343 793.787 L
242.214 802.234 L
246.086 811.238 L
249.957 810.318 L
253.829 799.938 L
257.7 803.912 L
261.571 789.477 L
265.443 793.305 L
269.314 798.742 L
273.186 794.749 L
277.057 785.361 L
280.929 789.144 L
284.8 788.494 L
288.671 788.1 L
292.543 792.074 L
296.414 801.75 L
300.286 804.317 L
304.157 796.353 L
308.029 804.214 L
311.9 805.868 L
315.771 798.239 L
319.643 784.997 L
323.514 779.351 L
327.386 790.407 L
331.257 793.31 L
335.129 782.199 L
339 787.307 L
342.871 799.36 L
346.743 798.427 L
350.614 816.542 L
354.486 797.455 L
358.357 778.829 L
362.229 809.6 L
366.1 806.895 L
369.971 806.354 L
373.843 798.864 L
377.714 794.811 L
381.586 797.037 L
385.457 799.113 L
389.329 806.951 L
393.2 796.916 L
397.071 794.405 L
400.943 795.156 L
404.814 801.815 L
408.686 806.496 L
412.557 803.51 L
416.429 809.82 L
420.3 811.576 L
424.171 806.846 L
428.043 798.175 L
431.914 796.188 L
435.786 790.962 L
439.657 799.242 L
443.529 805.925 L
447.4 800.07 L
451.271 800.568 L
455.143 800.639 L
459.014 801.626 L
462.886 800.58 L
466.757 806.681 L
470.629 814.541 L
474.5 800.353 L
478.371 793.77 L
482.243 780.748 L
486.114 784.901 L
489.986 789.677 L
493.857 788.674 L
497.729 796.497 L
501.6 795.102 L
505.471 794.364 L
509.343 805.851 L
513.214 809.248 L
517.086 799.907 L
520.957 805.961 L
524.829 801.06 L
528.7 805.812 L
532.571 806.641 L
536.443 810.72 L
S
GR
GS
[0.7498 0 0 0.74969 43.217 55.33821] CT
0 0.502 0 RC
1 LJ
0.667 LW
N
71.871 798 M
75.743 809.513 L
79.614 798.816 L
83.486 803.475 L
87.357 806.356 L
91.229 807.329 L
95.1 815.782 L
98.971 811.957 L
102.843 806.058 L
106.714 806.988 L
110.586 812.885 L
114.457 810.841 L
118.329 817.459 L
122.2 804.994 L
126.071 819.191 L
129.943 835.361 L
133.814 813.374 L
137.686 823.568 L
141.557 815.551 L
145.429 805.499 L
149.3 819.725 L
153.171 818.104 L
157.043 796.932 L
160.914 806.844 L
164.786 805.191 L
168.657 815.89 L
172.529 811.556 L
176.4 812.272 L
180.271 817.8 L
184.143 830.259 L
188.014 808.425 L
191.886 793.499 L
195.757 815.338 L
199.629 811.683 L
203.5 818.513 L
207.371 816.247 L
211.243 816.679 L
215.114 813.752 L
218.986 823.135 L
222.857 812.972 L
226.729 809.869 L
230.6 809.87 L
234.471 810.654 L
238.343 819.472 L
242.214 811.962 L
246.086 824.636 L
249.957 815.791 L
253.829 796.097 L
257.7 822.237 L
261.571 814.026 L
265.443 816.293 L
269.314 811.181 L
273.186 814.388 L
277.057 810.305 L
280.929 810.516 L
284.8 815.039 L
288.671 805.767 L
292.543 808.866 L
296.414 819.699 L
300.286 828.711 L
304.157 832.608 L
308.029 806.101 L
311.9 816.066 L
315.771 815.074 L
319.643 813.229 L
323.514 803.688 L
327.386 803.836 L
331.257 819.085 L
335.129 830.7 L
339 817.79 L
342.871 811.221 L
346.743 810.785 L
350.614 832.281 L
354.486 818.364 L
358.357 828.711 L
362.229 839.37 L
366.1 839.264 L
369.971 818.454 L
373.843 829.736 L
377.714 816.907 L
381.586 822.126 L
385.457 819.217 L
389.329 820.091 L
393.2 815.673 L
397.071 824.064 L
400.943 808.252 L
404.814 822.431 L
408.686 819.023 L
412.557 820.698 L
416.429 837.065 L
420.3 832.302 L
424.171 836.754 L
428.043 830.26 L
431.914 818.276 L
435.786 826.109 L
439.657 817.891 L
443.529 826.75 L
447.4 832.681 L
451.271 811.612 L
455.143 822.256 L
459.014 821.314 L
462.886 817.782 L
466.757 829.76 L
470.629 832.639 L
474.5 817.737 L
478.371 826.199 L
482.243 820.094 L
486.114 822.493 L
489.986 824.406 L
493.857 817.824 L
497.729 826.02 L
501.6 818.463 L
505.471 825.977 L
509.343 827.909 L
513.214 824.382 L
517.086 825.59 L
520.957 818.392 L
524.829 826.912 L
528.7 826.331 L
532.571 830.628 L
536.443 837.195 L
S
GR
GS
[0.7498 0 0 0.74969 43.217 55.33821] CT
1 0 0 RC
1 LJ
0.667 LW
N
71.871 798 M
75.743 807.577 L
79.614 820.848 L
83.486 840.901 L
87.357 834.644 L
91.229 831.218 L
95.1 838.04 L
98.971 847.613 L
102.843 850.307 L
106.714 835.774 L
110.586 842.111 L
114.457 837.579 L
118.329 843.066 L
122.2 839.661 L
126.071 844.984 L
129.943 837.549 L
133.814 840.761 L
137.686 843.226 L
141.557 855.523 L
145.429 836.753 L
149.3 849.235 L
153.171 861.599 L
157.043 863.253 L
160.914 851.519 L
164.786 852.552 L
168.657 833.892 L
172.529 851.061 L
176.4 840.67 L
180.271 846.12 L
184.143 844.929 L
188.014 842.822 L
191.886 844.036 L
195.757 869.29 L
199.629 851.253 L
203.5 850.938 L
207.371 854.142 L
211.243 841.746 L
215.114 861.515 L
218.986 861.119 L
222.857 879.662 L
226.729 863.596 L
230.6 856.703 L
234.471 879.184 L
238.343 869.76 L
242.214 851.542 L
246.086 864.41 L
249.957 854.556 L
253.829 859.533 L
257.7 879.623 L
261.571 869.717 L
265.443 866.859 L
269.314 878.197 L
273.186 880.987 L
277.057 886.411 L
280.929 891.238 L
284.8 892.273 L
288.671 878.261 L
292.543 876.534 L
296.414 881.618 L
300.286 881.405 L
304.157 887.194 L
308.029 876.388 L
311.9 896.372 L
315.771 879.903 L
319.643 879.113 L
323.514 889.697 L
327.386 876.078 L
331.257 884.908 L
335.129 893.277 L
339 887.681 L
342.871 876.741 L
346.743 879.428 L
350.614 889.536 L
354.486 896.319 L
358.357 883.514 L
362.229 898.804 L
366.1 908.505 L
369.971 902.36 L
373.843 896.174 L
377.714 885.538 L
381.586 900.485 L
385.457 906.23 L
389.329 898.5 L
393.2 890.582 L
397.071 903.661 L
400.943 894.546 L
404.814 892.601 L
408.686 883.395 L
412.557 882.713 L
416.429 884.156 L
420.3 884.257 L
424.171 894.673 L
428.043 903.742 L
431.914 874.384 L
435.786 906.707 L
439.657 873.677 L
443.529 906.409 L
447.4 887.031 L
451.271 881.471 L
455.143 884.304 L
459.014 890.452 L
462.886 880.209 L
466.757 896.927 L
470.629 894.892 L
474.5 902.259 L
478.371 894.742 L
482.243 907.28 L
486.114 901.934 L
489.986 899.971 L
493.857 890.902 L
497.729 890.181 L
501.6 899.686 L
505.471 904.396 L
509.343 898.721 L
513.214 894.369 L
517.086 893.807 L
520.957 900.645 L
524.829 907.246 L
528.7 915.007 L
532.571 906.073 L
536.443 895.93 L
S
GR
GS
[0.7498 0 0 0.74969 43.217 55.33821] CT
1 GC
N
601 789 M
601 742 L
530 742 L
530 789 L
cp
f
GR
GS
[0.7498 0 0 0.74969 475.85239 618.35306] CT
/Helvetica 11.4 F
GS
[1 0 0 1 0 0] CT
0 4 moveto 
1 -1 scale
(pitch) t 
GR
GR
GS
[0.7498 0 0 0.74969 43.217 55.33821] CT
0 0 1 RC
1 LJ
0.667 LW
N
534 751 M
574 751 L
S
GR
GS
[0.7498 0 0 0.74969 475.85239 629.22352] CT
/Helvetica 11.4 F
GS
[1 0 0 1 0 0] CT
0 4 moveto 
1 -1 scale
(roll) t 
GR
GR
GS
[0.7498 0 0 0.74969 43.217 55.33821] CT
0 0.502 0 RC
1 LJ
0.667 LW
N
534 765.5 M
574 765.5 L
S
GR
GS
[0.7498 0 0 0.74969 475.85239 640.09398] CT
/Helvetica 11.4 F
GS
[1 0 0 1 0 0] CT
0 4 moveto 
1 -1 scale
(yaw) t 
GR
GR
GS
[0.7498 0 0 0.74969 43.217 55.33821] CT
1 0 0 RC
1 LJ
0.667 LW
N
534 780 M
574 780 L
S
GR
GS
[0.7498 0 0 0.74969 43.217 55.33821] CT
10.0 ML
0.667 LW
N
530 789 M
530 742 L
601 742 L
601 789 L
cp
S
GR
showpage
%%Trailer
%%Pages: 1
%%EOF
